…
Finding Minimum, Maximum, Mean, Median, standard deviation values for
the member & casual riders’ ride lengths

    ## # A tibble: 2 x 6
    ##   member_casual min_ride_len max_ride_len mean_ride_len med_ride_len std_dev
    ##   <chr>                <dbl>        <dbl>         <dbl>        <dbl>   <dbl>
    ## 1 casual                   2        1440.          37.1         21.7    63.1
    ## 2 member                   2        1440.          15.7         11.8    20.3

**Hour of day analysis**

Number of rides by casual and member riders during the hours of day

    ## # A tibble: 48 x 3
    ##    member_casual  Hour number_of_ride
    ##    <chr>         <int>          <int>
    ##  1 casual            0          22661
    ##  2 casual            1          14130
    ##  3 casual            2           7515
    ##  4 casual            3           3944
    ##  5 casual            4           3240
    ##  6 casual            5           5132
    ##  7 casual            6          12588
    ##  8 casual            7          22638
    ##  9 casual            8          31224
    ## 10 casual            9          39722
    ## # ... with 38 more rows
…
**Month of year analysis**

Comparison of mean ride length between casual and member riders during
the months of year

    ## # A tibble: 24 x 3
    ##    member_casual Month mean_ride_len
    ##    <chr>         <ord>         <dbl>
    ##  1 casual        Jan            22.6
    ##  2 casual        Feb            31.6
    ##  3 casual        Mar            32.6
    ##  4 casual        Apr            32.6
    ##  5 casual        May            44.8
    ##  6 casual        Jun            42.7
    ##  7 casual        Jul            44.9
    ##  8 casual        Aug            38.1
    ##  9 casual        Sep            32.9
    ## 10 casual        Oct            28.4
    ## # ... with 14 more rows
…
Comparison of median ride length between casual and member riders during
the months of year

    ## # A tibble: 24 x 3
    ##    member_casual Month med_ride_len
    ##    <chr>         <ord>        <dbl>
    ##  1 casual        Jan           12.8
    ##  2 casual        Feb           17.0
    ##  3 casual        Mar           19.7
    ##  4 casual        Apr           19.1
    ##  5 casual        May           26.8
    ##  6 casual        Jun           24.9
    ##  7 casual        Jul           25.7
    ##  8 casual        Aug           22.6
    ##  9 casual        Sep           19.8
    ## 10 casual        Oct           16.9
    ## # ... with 14 more rows
…
Comparison of number of rides between casual and member riders during
the months of year

    ## # A tibble: 24 x 3
    ##    member_casual Month number_of_ride
    ##    <chr>         <ord>          <int>
    ##  1 casual        Jan            14474
    ##  2 casual        Feb             8442
    ##  3 casual        Mar            74506
    ##  4 casual        Apr           118515
    ##  5 casual        May            85488
    ##  6 casual        Jun           152100
    ##  7 casual        Jul           264400
    ##  8 casual        Aug           276240
    ##  9 casual        Sep           210735
    ## 10 casual        Oct           119867
    ## # ... with 14 more rows
…
**Start & end stations analysis**

Most popular start stations among the casual riders

    ## # A tibble: 25 x 2
    ##    start_station_name           number_of_rides
    ##    <chr>                                  <int>
    ##  1 Streeter Dr & Grand Ave                27727
    ##  2 Lake Shore Dr & Monroe St              22911
    ##  3 Millennium Park                        20833
    ##  4 Theater on the Lake                    15811
    ##  5 Michigan Ave & Oak St                  14807
    ##  6 Indiana Ave & Roosevelt Rd             14161
    ##  7 Lake Shore Dr & North Blvd             14059
    ##  8 Michigan Ave & Lake St                 12313
    ##  9 Clark St & Elm St                      12259
    ## 10 Michigan Ave & Washington St           11274
    ## # ... with 15 more rows
…
Most popular end stations among the casual riders

    ## # A tibble: 25 x 2
    ##    end_station_name             number_of_rides
    ##    <chr>                                  <int>
    ##  1 Streeter Dr & Grand Ave                30125
    ##  2 Lake Shore Dr & Monroe St              22291
    ##  3 Millennium Park                        21877
    ##  4 Theater on the Lake                    17858
    ##  5 Michigan Ave & Oak St                  15521
    ##  6 Lake Shore Dr & North Blvd             15106
    ##  7 Indiana Ave & Roosevelt Rd             14323
    ##  8 Michigan Ave & Lake St                 11787
    ##  9 Clark St & Elm St                      11732
    ## 10 Michigan Ave & Washington St           11281
    ## # ... with 15 more rows
…
#### 5. SHARE

This phase includes findings of my analysis.

**Casual riders ride bikes between 10:00 A.M. and 8:00 P.M.**

    ## # A tibble: 48 x 3
    ##    member_casual  Hour number_of_ride
    ##    <chr>         <int>          <int>
    ##  1 casual            0          22661
    ##  2 casual            1          14130
    ##  3 casual            2           7515
    ##  4 casual            3           3944
    ##  5 casual            4           3240
    ##  6 casual            5           5132
    ##  7 casual            6          12588
    ##  8 casual            7          22638
    ##  9 casual            8          31224
    ## 10 casual            9          39722
    ## # ... with 38 more rows
…
Casual riders ride bikes mainly during summer months of June to
September.

    ## # A tibble: 24 x 3
    ##    member_casual Month number_of_ride
    ##    <chr>         <ord>          <int>
    ##  1 casual        Jan            14474
    ##  2 casual        Feb             8442
    ##  3 casual        Mar            74506
    ##  4 casual        Apr           118515
    ##  5 casual        May            85488
    ##  6 casual        Jun           152100
    ##  7 casual        Jul           264400
    ##  8 casual        Aug           276240
    ##  9 casual        Sep           210735
    ## 10 casual        Oct           119867
    ## # ... with 14 more rows
…
Casual riders ride bikes longer during summer months of May to August.

    ## # A tibble: 24 x 3
    ##    member_casual Month mean_ride_len
    ##    <chr>         <ord>         <dbl>
    ##  1 casual        Jan            22.6
    ##  2 casual        Feb            31.6
    ##  3 casual        Mar            32.6
    ##  4 casual        Apr            32.6
    ##  5 casual        May            44.8
    ##  6 casual        Jun            42.7
    ##  7 casual        Jul            44.9
    ##  8 casual        Aug            38.1
    ##  9 casual        Sep            32.9
    ## 10 casual        Oct            28.4
    ## # ... with 14 more rows
…
25 most popular start and 25 most popular end stations among the casual
riders

    ## # A tibble: 25 x 2
    ##    start_station_name           number_of_rides
    ##    <chr>                                  <int>
    ##  1 Streeter Dr & Grand Ave                27727
    ##  2 Lake Shore Dr & Monroe St              22911
    ##  3 Millennium Park                        20833
    ##  4 Theater on the Lake                    15811
    ##  5 Michigan Ave & Oak St                  14807
    ##  6 Indiana Ave & Roosevelt Rd             14161
    ##  7 Lake Shore Dr & North Blvd             14059
    ##  8 Michigan Ave & Lake St                 12313
    ##  9 Clark St & Elm St                      12259
    ## 10 Michigan Ave & Washington St           11274
    ## # ... with 15 more rows

    ## # A tibble: 25 x 2
    ##    end_station_name             number_of_rides
    ##    <chr>                                  <int>
    ##  1 Streeter Dr & Grand Ave                30125
    ##  2 Lake Shore Dr & Monroe St              22291
    ##  3 Millennium Park                        21877
    ##  4 Theater on the Lake                    17858
    ##  5 Michigan Ave & Oak St                  15521
    ##  6 Lake Shore Dr & North Blvd             15106
    ##  7 Indiana Ave & Roosevelt Rd             14323
    ##  8 Michigan Ave & Lake St                 11787
    ##  9 Clark St & Elm St                      11732
    ## 10 Michigan Ave & Washington St           11281
    ## # ... with 15 more rows
…
